; Engine configuration file.
; It's best edited using the editor UI and not directly,
; since the parameters that go here are not all obvious.
;
; Format:
;   [section] ; section goes between []
;   param=value ; assign values to parameters

config_version=4

[application]

config/name="Furious Fletchlings by Issac Newton LLC"
run/main_scene="res://Scenes/Splash.tscn"
boot_splash/image="res://Assets/Sprites/Splash.png"
boot_splash/fullsize=false
boot_splash/bg_color=Color( 0, 0, 0, 1 )
config/icon="res://icon.png"

[autoload]

SilentWolf="*res://addons/silent_wolf/SilentWolf.gd"

[debug]

settings/fps/force_fps=60

[display]

window/stretch/mode="viewport"
window/stretch/aspect="keep"

[editor_plugins]

enabled=PoolStringArray( "res://addons/Line3D/plugin.cfg", "res://addons/SmoothScroll/plugin.cfg", "res://addons/silent_wolf/plugin.cfg" )

[gui]

common/drop_mouse_on_gui_input_disabled=true

[input]

debug={
"deadzone": 0.5,
"events": [ Object(InputEventKey,"resource_local_to_scene":false,"resource_name":"","device":0,"alt":false,"shift":false,"control":false,"meta":false,"command":false,"pressed":false,"scancode":16777246,"physical_scancode":0,"unicode":0,"echo":false,"script":null)
, Object(InputEventJoypadButton,"resource_local_to_scene":false,"resource_name":"","device":0,"button_index":12,"pressure":0.0,"pressed":false,"script":null)
 ]
}
console={
"deadzone": 0.5,
"events": [ Object(InputEventKey,"resource_local_to_scene":false,"resource_name":"","device":0,"alt":false,"shift":false,"control":false,"meta":false,"command":false,"pressed":false,"scancode":96,"physical_scancode":0,"unicode":0,"echo":false,"script":null)
 ]
}
free_camera={
"deadzone": 0.5,
"events": [ Object(InputEventKey,"resource_local_to_scene":false,"resource_name":"","device":0,"alt":false,"shift":false,"control":false,"meta":false,"command":false,"pressed":false,"scancode":16777247,"physical_scancode":0,"unicode":0,"echo":false,"script":null)
, Object(InputEventJoypadButton,"resource_local_to_scene":false,"resource_name":"","device":0,"button_index":10,"pressure":0.0,"pressed":false,"script":null)
 ]
}
slowmo={
"deadzone": 0.5,
"events": [ Object(InputEventKey,"resource_local_to_scene":false,"resource_name":"","device":0,"alt":false,"shift":false,"control":false,"meta":false,"command":false,"pressed":false,"scancode":83,"physical_scancode":0,"unicode":0,"echo":false,"script":null)
 ]
}
controllerLeft={
"deadzone": 0.5,
"events": [ Object(InputEventJoypadMotion,"resource_local_to_scene":false,"resource_name":"","device":0,"axis":0,"axis_value":-1.0,"script":null)
 ]
}
controllerRight={
"deadzone": 0.5,
"events": [ Object(InputEventJoypadMotion,"resource_local_to_scene":false,"resource_name":"","device":0,"axis":0,"axis_value":1.0,"script":null)
 ]
}
controllerUp={
"deadzone": 0.5,
"events": [ Object(InputEventJoypadMotion,"resource_local_to_scene":false,"resource_name":"","device":0,"axis":1,"axis_value":-1.0,"script":null)
 ]
}
controllerDown={
"deadzone": 0.5,
"events": [ Object(InputEventJoypadMotion,"resource_local_to_scene":false,"resource_name":"","device":0,"axis":1,"axis_value":1.0,"script":null)
 ]
}
fsbrow={
"deadzone": 0.5,
"events": [ Object(InputEventKey,"resource_local_to_scene":false,"resource_name":"","device":0,"alt":false,"shift":false,"control":false,"meta":false,"command":false,"pressed":false,"scancode":16777248,"physical_scancode":0,"unicode":0,"echo":false,"script":null)
 ]
}

[locale]

translations=PoolStringArray(  )
translation_remaps={
}

[physics]

common/enable_pause_aware_picking=true
2d/physics_engine="GodotPhysics"

[rendering]

quality/driver/driver_name="GLES2"
vram_compression/import_etc=true
vram_compression/import_etc2=false
environment/default_environment="res://default_env.tres"
