[gd_scene load_steps=26 format=2]

[ext_resource path="res://Assets/Sprites/Chuck.png" type="Texture" id=1]
[ext_resource path="res://Scripts/Bird.gd" type="Script" id=2]
[ext_resource path="res://Assets/Music/Idle.ogg" type="AudioStream" id=3]
[ext_resource path="res://Assets/Music/Retry.ogg" type="AudioStream" id=4]
[ext_resource path="res://Assets/Music/Action.ogg" type="AudioStream" id=5]
[ext_resource path="res://Assets/SoundFX/Launch.wav" type="AudioStream" id=6]
[ext_resource path="res://Assets/Instancable/TileMap.tres" type="TileSet" id=7]
[ext_resource path="res://Scripts/Level.gd" type="Script" id=8]
[ext_resource path="res://Assets/Instancable/Sky.tscn" type="PackedScene" id=9]
[ext_resource path="res://Assets/Instancable/Control.tscn" type="PackedScene" id=10]
[ext_resource path="res://Assets/SoundFX/Pull.wav" type="AudioStream" id=11]
[ext_resource path="res://Assets/SoundFX/Collide.wav" type="AudioStream" id=12]
[ext_resource path="res://Assets/Sprites/Pig.png" type="Texture" id=13]
[ext_resource path="res://Scripts/Pig.gd" type="Script" id=14]
[ext_resource path="res://Assets/Fonts/Roboto-Bold.ttf" type="DynamicFontData" id=15]
[ext_resource path="res://Scripts/CameraFreeLook2D.gd" type="Script" id=16]
[ext_resource path="res://Assets/Sprites/Wood.png" type="Texture" id=17]
[ext_resource path="res://Hats.tres" type="SpriteFrames" id=18]

[sub_resource type="DynamicFont" id=14]
size = 28
font_data = ExtResource( 15 )

[sub_resource type="PhysicsMaterial" id=7]

[sub_resource type="ConvexPolygonShape2D" id=6]
points = PoolVector2Array( -0.762, -40.601, -67.238, 43.948, 68.91, 44.035 )

[sub_resource type="RectangleShape2D" id=57]
extents = Vector2( 32, 32 )

[sub_resource type="CircleShape2D" id=11]
radius = 45.0444

[sub_resource type="DynamicFont" id=12]
size = 36
font_data = ExtResource( 15 )

[sub_resource type="StyleBoxFlat" id=13]
content_margin_left = 5.0
content_margin_right = 5.0
content_margin_top = 5.0
content_margin_bottom = 5.0
bg_color = Color( 0, 0, 0, 0.439216 )
corner_radius_top_left = 5
corner_radius_top_right = 5
corner_radius_bottom_right = 5
corner_radius_bottom_left = 5

[node name="1" type="Node2D"]
script = ExtResource( 8 )
pigs = 2

[node name="CameraTarget" type="Position2D" parent="."]

[node name="Camera2D" type="Camera2D" parent="CameraTarget"]
position = Vector2( 3, 0 )
current = true
zoom = Vector2( 2, 2 )
limit_left = -1120
limit_top = -1000
limit_right = 2500
limit_bottom = 500
limit_smoothed = true
smoothing_enabled = true

[node name="CanvasLayer" type="CanvasLayer" parent="CameraTarget/Camera2D"]

[node name="Control" parent="CameraTarget/Camera2D/CanvasLayer" instance=ExtResource( 10 )]

[node name="FakeBird" type="Sprite" parent="."]
self_modulate = Color( 0.435294, 0.435294, 0.435294, 1 )
position = Vector2( -1537, 15 )
texture = ExtResource( 1 )

[node name="AnimatedSprite" type="AnimatedSprite" parent="FakeBird"]
position = Vector2( 1, -116 )
frames = ExtResource( 18 )

[node name="Label" type="Label" parent="FakeBird"]
margin_left = -185.0
margin_top = -84.0
margin_right = 189.0
margin_bottom = -51.0
custom_colors/font_color_shadow = Color( 0, 0, 0, 1 )
custom_constants/shadow_offset_x = 2
custom_constants/shadow_offset_y = 2
custom_fonts/font = SubResource( 14 )
text = "Player Name"
align = 1
valign = 1

[node name="Bird" type="RigidBody2D" parent="."]
position = Vector2( -699, -7 )
physics_material_override = SubResource( 7 )
gravity_scale = 5.0
script = ExtResource( 2 )

[node name="Sprite" type="Sprite" parent="Bird"]
texture = ExtResource( 1 )

[node name="CollisionShape2D" type="CollisionShape2D" parent="Bird"]
shape = SubResource( 6 )

[node name="Tween" type="Tween" parent="Bird"]

[node name="BGM1" type="AudioStreamPlayer" parent="Bird"]
stream = ExtResource( 3 )
volume_db = -80.0
autoplay = true
bus = "BGM1"

[node name="BGM2" type="AudioStreamPlayer" parent="Bird"]
stream = ExtResource( 4 )
autoplay = true
bus = "BGM2"

[node name="BGM3" type="AudioStreamPlayer" parent="Bird"]
stream = ExtResource( 5 )
bus = "BGM3"

[node name="PullSFX" type="AudioStreamPlayer" parent="Bird"]
stream = ExtResource( 11 )
volume_db = -80.0
autoplay = true
bus = "SFX"

[node name="LaunchSFX" type="AudioStreamPlayer" parent="Bird"]
stream = ExtResource( 6 )
bus = "SFX"

[node name="CollideSFX" type="AudioStreamPlayer2D" parent="Bird"]
stream = ExtResource( 12 )

[node name="Light2D" type="Light2D" parent="Bird"]
visible = false
position = Vector2( 0, -0.999969 )
scale = Vector2( 0.977778, 0.991379 )
texture = ExtResource( 1 )

[node name="AnimatedSprite" type="AnimatedSprite" parent="Bird"]
position = Vector2( 1, -116 )
frames = ExtResource( 18 )

[node name="Level" type="Node2D" parent="."]
position = Vector2( 626, 1 )

[node name="Plank" type="RigidBody2D" parent="Level"]
position = Vector2( 257, -32.0001 )
mass = 5.0
gravity_scale = 5.0

[node name="Sprite" type="Sprite" parent="Level/Plank"]
scale = Vector2( 0.558, 0.722 )
texture = ExtResource( 17 )

[node name="CollisionShape2D" type="CollisionShape2D" parent="Level/Plank"]
position = Vector2( 0, -1.19209e-06 )
scale = Vector2( 0.571, 4.031 )
shape = SubResource( 57 )

[node name="Plank4" type="RigidBody2D" parent="Level"]
position = Vector2( 293, -333 )
mass = 5.0
gravity_scale = 5.0

[node name="Sprite" type="Sprite" parent="Level/Plank4"]
scale = Vector2( 0.558, 0.721 )
texture = ExtResource( 17 )

[node name="CollisionShape2D" type="CollisionShape2D" parent="Level/Plank4"]
position = Vector2( 0, -1.19209e-06 )
scale = Vector2( 0.571, 4.031 )
shape = SubResource( 57 )

[node name="Plank5" type="RigidBody2D" parent="Level"]
position = Vector2( 428, -329 )
mass = 5.0
gravity_scale = 5.0

[node name="Sprite" type="Sprite" parent="Level/Plank5"]
scale = Vector2( 0.558, 0.723 )
texture = ExtResource( 17 )

[node name="CollisionShape2D" type="CollisionShape2D" parent="Level/Plank5"]
position = Vector2( 0, -1.19209e-06 )
scale = Vector2( 0.571, 4.031 )
shape = SubResource( 57 )

[node name="Plank6" type="RigidBody2D" parent="Level"]
position = Vector2( 364, -481 )
rotation = 1.56736
mass = 5.0
gravity_scale = 5.0

[node name="Sprite" type="Sprite" parent="Level/Plank6"]
scale = Vector2( 0.558, 0.45 )
texture = ExtResource( 17 )

[node name="CollisionShape2D" type="CollisionShape2D" parent="Level/Plank6"]
position = Vector2( 0, -1.19209e-06 )
scale = Vector2( 0.571, 2.525 )
shape = SubResource( 57 )

[node name="Plank7" type="RigidBody2D" parent="Level"]
position = Vector2( 367, -533 )
rotation = 3.13713
mass = 5.0
gravity_scale = 5.0

[node name="Sprite" type="Sprite" parent="Level/Plank7"]
scale = Vector2( 0.558, 0.156 )
texture = ExtResource( 17 )

[node name="CollisionShape2D" type="CollisionShape2D" parent="Level/Plank7"]
scale = Vector2( 0.571, 0.889 )
shape = SubResource( 57 )

[node name="Plank9" type="RigidBody2D" parent="Level"]
position = Vector2( 102, 64.9999 )
rotation = 3.13713
mass = 5.0
gravity_scale = 5.0

[node name="Sprite" type="Sprite" parent="Level/Plank9"]
scale = Vector2( 0.558, 0.154 )
texture = ExtResource( 17 )

[node name="CollisionShape2D" type="CollisionShape2D" parent="Level/Plank9"]
scale = Vector2( 0.571, 0.889 )
shape = SubResource( 57 )

[node name="Plank14" type="RigidBody2D" parent="Level"]
position = Vector2( 102, 163 )
rotation = 3.13713
mass = 5.0
gravity_scale = 5.0

[node name="Sprite" type="Sprite" parent="Level/Plank14"]
scale = Vector2( 0.558, 0.146 )
texture = ExtResource( 17 )

[node name="CollisionShape2D" type="CollisionShape2D" parent="Level/Plank14"]
scale = Vector2( 0.571, 0.889 )
shape = SubResource( 57 )

[node name="Plank15" type="RigidBody2D" parent="Level"]
position = Vector2( 324, 162 )
rotation = 3.13713
mass = 5.0
gravity_scale = 5.0

[node name="Sprite" type="Sprite" parent="Level/Plank15"]
scale = Vector2( 0.558, 0.156 )
texture = ExtResource( 17 )

[node name="CollisionShape2D" type="CollisionShape2D" parent="Level/Plank15"]
scale = Vector2( 0.571, 0.889 )
shape = SubResource( 57 )

[node name="Plank16" type="RigidBody2D" parent="Level"]
position = Vector2( 364, 162 )
rotation = 3.13713
mass = 5.0
gravity_scale = 5.0

[node name="Sprite" type="Sprite" parent="Level/Plank16"]
scale = Vector2( 0.558, 0.166 )
texture = ExtResource( 17 )

[node name="CollisionShape2D" type="CollisionShape2D" parent="Level/Plank16"]
scale = Vector2( 0.571, 0.889 )
shape = SubResource( 57 )

[node name="Plank10" type="RigidBody2D" parent="Level"]
position = Vector2( 584, 65.9999 )
rotation = 3.13713
mass = 5.0
gravity_scale = 5.0

[node name="Sprite" type="Sprite" parent="Level/Plank10"]
scale = Vector2( 0.558, 0.165 )
texture = ExtResource( 17 )

[node name="CollisionShape2D" type="CollisionShape2D" parent="Level/Plank10"]
scale = Vector2( 0.571, 0.889 )
shape = SubResource( 57 )

[node name="Plank13" type="RigidBody2D" parent="Level"]
position = Vector2( 583, 162 )
rotation = 3.13713
mass = 5.0
gravity_scale = 5.0

[node name="Sprite" type="Sprite" parent="Level/Plank13"]
scale = Vector2( 0.558, 0.144 )
texture = ExtResource( 17 )

[node name="CollisionShape2D" type="CollisionShape2D" parent="Level/Plank13"]
scale = Vector2( 0.571, 0.889 )
shape = SubResource( 57 )

[node name="Plank8" type="RigidBody2D" parent="Level"]
position = Vector2( 359, -226 )
rotation = 4.71833
mass = 5.0
gravity_scale = 5.0

[node name="Sprite" type="Sprite" parent="Level/Plank8"]
scale = Vector2( 0.558, 0.166 )
texture = ExtResource( 17 )

[node name="CollisionShape2D" type="CollisionShape2D" parent="Level/Plank8"]
scale = Vector2( 0.571, 0.889 )
shape = SubResource( 57 )

[node name="Plank2" type="RigidBody2D" parent="Level"]
position = Vector2( 458, -32.0001 )
mass = 5.0
gravity_scale = 5.0

[node name="Sprite" type="Sprite" parent="Level/Plank2"]
scale = Vector2( 0.558, 0.714 )
texture = ExtResource( 17 )

[node name="CollisionShape2D" type="CollisionShape2D" parent="Level/Plank2"]
position = Vector2( 0, -1.19209e-06 )
scale = Vector2( 0.571, 4.031 )
shape = SubResource( 57 )

[node name="Plank3" type="RigidBody2D" parent="Level"]
position = Vector2( 357, -183 )
rotation = 1.5793
mass = 5.0
gravity_scale = 5.0

[node name="Sprite" type="Sprite" parent="Level/Plank3"]
scale = Vector2( 0.558, 0.729 )
texture = ExtResource( 17 )

[node name="CollisionShape2D" type="CollisionShape2D" parent="Level/Plank3"]
position = Vector2( 0, -1.19209e-06 )
scale = Vector2( 0.571, 4.031 )
shape = SubResource( 57 )

[node name="Plank11" type="RigidBody2D" parent="Level"]
position = Vector2( 214, 115 )
rotation = 1.5793
mass = 5.0
gravity_scale = 5.0

[node name="Sprite" type="Sprite" parent="Level/Plank11"]
scale = Vector2( 0.558, 0.699 )
texture = ExtResource( 17 )

[node name="CollisionShape2D" type="CollisionShape2D" parent="Level/Plank11"]
position = Vector2( 0, -1.19209e-06 )
scale = Vector2( 0.571, 4.031 )
shape = SubResource( 57 )

[node name="Plank12" type="RigidBody2D" parent="Level"]
position = Vector2( 472, 114 )
rotation = 1.5793
mass = 5.0
gravity_scale = 5.0

[node name="Sprite" type="Sprite" parent="Level/Plank12"]
scale = Vector2( 0.558, 0.718 )
texture = ExtResource( 17 )

[node name="CollisionShape2D" type="CollisionShape2D" parent="Level/Plank12"]
position = Vector2( 0, -1.19209e-06 )
scale = Vector2( 0.571, 4.031 )
shape = SubResource( 57 )

[node name="Pig" type="RigidBody2D" parent="Level"]
position = Vector2( 359, -288 )
gravity_scale = 5.0
script = ExtResource( 14 )

[node name="Sprite" type="Sprite" parent="Level/Pig"]
position = Vector2( 10, 0 )
scale = Vector2( 0.5, 0.5 )
texture = ExtResource( 13 )

[node name="CollisionShape2D" type="CollisionShape2D" parent="Level/Pig"]
shape = SubResource( 11 )

[node name="Pig2" type="RigidBody2D" parent="Level"]
position = Vector2( 358, 46 )
gravity_scale = 5.0
script = ExtResource( 14 )

[node name="Sprite" type="Sprite" parent="Level/Pig2"]
position = Vector2( 10, 0 )
scale = Vector2( 0.5, 0.5 )
texture = ExtResource( 13 )

[node name="CollisionShape2D" type="CollisionShape2D" parent="Level/Pig2"]
shape = SubResource( 11 )

[node name="TileMap" type="TileMap" parent="."]
tile_set = ExtResource( 7 )
format = 1
tile_data = PoolIntArray( 262121, 0, 0, 262122, 0, 0, 262123, 0, 0, 262124, 0, 0, 262125, 0, 0, 262126, 0, 0, 262127, 0, 0, 262128, 0, 0, 262129, 0, 0, 262130, 0, 0, 262131, 0, 0, 262132, 0, 0, 262133, 0, 0, 262134, 0, 0, 262135, 0, 0, 262136, 0, 0, 262137, 0, 0, 262138, 0, 0, 262139, 0, 0, 262140, 0, 0, 262141, 0, 0, 262142, 0, 0, 262143, 0, 0, 196608, 0, 0, 196609, 0, 0, 196610, 0, 0, 196611, 0, 0, 196612, 0, 0, 196613, 0, 0, 196614, 0, 0, 196615, 0, 0, 196616, 0, 0, 196617, 0, 0, 196618, 0, 0, 196619, 0, 0, 196620, 0, 0, 196621, 0, 0, 196622, 0, 0, 196623, 0, 0, 196624, 0, 0, 196625, 0, 0, 196626, 0, 0, 196627, 0, 0, 196628, 0, 0, 196629, 0, 0, 196630, 0, 0, 196631, 0, 0, 196632, 0, 0, 196633, 0, 0, 196634, 0, 0, 196635, 0, 0, 196636, 0, 0, 196637, 0, 0, 196638, 0, 0, 196639, 0, 0, 196640, 0, 0, 196641, 0, 0, 196642, 0, 0, 196643, 0, 0, 196644, 0, 0, 196645, 0, 0, 196646, 0, 0, 196647, 0, 0, 196648, 0, 0, 196649, 0, 0, 196650, 0, 0, 196651, 0, 0, 196652, 0, 0, 196653, 0, 0, 196654, 0, 0, 196655, 0, 0, 196656, 0, 0, 196657, 0, 0, 196658, 0, 0, 196659, 0, 0, 196660, 0, 0, 196661, 0, 0, 196662, 0, 0, 196663, 0, 0, 196664, 0, 0, 196665, 0, 0, 196666, 0, 0, 196667, 0, 0, 196668, 0, 0, 196669, 0, 0, 196670, 0, 0, 196671, 0, 0, 196672, 0, 0, 196673, 0, 0, 196674, 0, 0, 196675, 0, 0, 196676, 0, 0, 196677, 0, 0, 196678, 0, 0, 196679, 0, 0, 196680, 0, 0, 196681, 0, 0, 196682, 0, 0, 196683, 0, 0, 196684, 0, 0, 196685, 0, 0, 196686, 0, 0, 196687, 0, 0, 196688, 0, 0, 196689, 0, 0, 196690, 0, 0, 196691, 0, 0, 196692, 0, 0, 196693, 0, 0, 196694, 0, 0, 196695, 0, 0, 196696, 0, 0, 196697, 0, 0, 196698, 0, 0, 196699, 0, 0, 196700, 0, 0, 196701, 0, 0, 196702, 0, 0, 196703, 0, 0, 327657, 0, 0, 327658, 0, 0, 327659, 0, 0, 327660, 0, 0, 327661, 0, 0, 327662, 0, 0, 327663, 0, 0, 327664, 0, 0, 327665, 0, 0, 327666, 0, 0, 327667, 0, 0, 327668, 0, 0, 327669, 0, 0, 327670, 0, 0, 327671, 0, 0, 327672, 0, 0, 327673, 0, 0, 327674, 0, 0, 327675, 0, 0, 327676, 0, 0, 327677, 0, 0, 327678, 0, 0, 327679, 0, 0, 262144, 0, 0, 262145, 0, 0, 262146, 0, 0, 262147, 0, 0, 262148, 0, 0, 262149, 0, 0, 262150, 0, 0, 262151, 0, 0, 262152, 0, 0, 262153, 0, 0, 262154, 0, 0, 262155, 0, 0, 262156, 0, 0, 262157, 0, 0, 262158, 0, 0, 262159, 0, 0, 262160, 0, 0, 262161, 0, 0, 262162, 0, 0, 262163, 0, 0, 262164, 0, 0, 262165, 0, 0, 262166, 0, 0, 262167, 0, 0, 262168, 0, 0, 262169, 0, 0, 262170, 0, 0, 262171, 0, 0, 262172, 0, 0, 262173, 0, 0, 262174, 0, 0, 262175, 0, 0, 262176, 0, 0, 262177, 0, 0, 262178, 0, 0, 262179, 0, 0, 262180, 0, 0, 262181, 0, 0, 262182, 0, 0, 262183, 0, 0, 262184, 0, 0, 262185, 0, 0, 262186, 0, 0, 262187, 0, 0, 262188, 0, 0, 262189, 0, 0, 262190, 0, 0, 262191, 0, 0, 262192, 0, 0, 262193, 0, 0, 262194, 0, 0, 262195, 0, 0, 262196, 0, 0, 262197, 0, 0, 262198, 0, 0, 262199, 0, 0, 262200, 0, 0, 262201, 0, 0, 262202, 0, 0, 262203, 0, 0, 262204, 0, 0, 262205, 0, 0, 262206, 0, 0, 262207, 0, 0, 262208, 0, 0, 262209, 0, 0, 262210, 0, 0, 262211, 0, 0, 262212, 0, 0, 262213, 0, 0, 262214, 0, 0, 262215, 0, 0, 262216, 0, 0, 262217, 0, 0, 262218, 0, 0, 262219, 0, 0, 262220, 0, 0, 262221, 0, 0, 262222, 0, 0, 262223, 0, 0, 262224, 0, 0, 262225, 0, 0, 262226, 0, 0, 262227, 0, 0, 262228, 0, 0, 262229, 0, 0, 262230, 0, 0, 262231, 0, 0, 262232, 0, 0, 262233, 0, 0, 262234, 0, 0, 262235, 0, 0, 262236, 0, 0, 262237, 0, 0, 262238, 0, 0, 262239, 0, 0, 393193, 0, 0, 393194, 0, 0, 393195, 0, 0, 393196, 0, 0, 393197, 0, 0, 393198, 0, 0, 393199, 0, 0, 393200, 0, 0, 393201, 0, 0, 393202, 0, 0, 393203, 0, 0, 393204, 0, 0, 393205, 0, 0, 393206, 0, 0, 393207, 0, 0, 393208, 0, 0, 393209, 0, 0, 393210, 0, 0, 393211, 0, 0, 393212, 0, 0, 393213, 0, 0, 393214, 0, 0, 393215, 0, 0, 327680, 0, 0, 327681, 0, 0, 327682, 0, 0, 327683, 0, 0, 327684, 0, 0, 327685, 0, 0, 327686, 0, 0, 327687, 0, 0, 327688, 0, 0, 327689, 0, 0, 327690, 0, 0, 327691, 0, 0, 327692, 0, 0, 327693, 0, 0, 327694, 0, 0, 327695, 0, 0, 327696, 0, 0, 327697, 0, 0, 327698, 0, 0, 327699, 0, 0, 327700, 0, 0, 327701, 0, 0, 327702, 0, 0, 327703, 0, 0, 327704, 0, 0, 327705, 0, 0, 327706, 0, 0, 327707, 0, 0, 327708, 0, 0, 327709, 0, 0, 327710, 0, 0, 327711, 0, 0, 327712, 0, 0, 327713, 0, 0, 327714, 0, 0, 327715, 0, 0, 327716, 0, 0, 327717, 0, 0, 327718, 0, 0, 327719, 0, 0, 327720, 0, 0, 327721, 0, 0, 327722, 0, 0, 327723, 0, 0, 327724, 0, 0, 327725, 0, 0, 327726, 0, 0, 327727, 0, 0, 327728, 0, 0, 327729, 0, 0, 327730, 0, 0, 327731, 0, 0, 327732, 0, 0, 327733, 0, 0, 327734, 0, 0, 327735, 0, 0, 327736, 0, 0, 327737, 0, 0, 327738, 0, 0, 327739, 0, 0, 327740, 0, 0, 327741, 0, 0, 327742, 0, 0, 327743, 0, 0, 327744, 0, 0, 327745, 0, 0, 327746, 0, 0, 327747, 0, 0, 327748, 0, 0, 327749, 0, 0, 327750, 0, 0, 327751, 0, 0, 327752, 0, 0, 327753, 0, 0, 327754, 0, 0, 327755, 0, 0, 327756, 0, 0, 327757, 0, 0, 327758, 0, 0, 327759, 0, 0, 327760, 0, 0, 327761, 0, 0, 327762, 0, 0, 327763, 0, 0, 327764, 0, 0, 327765, 0, 0, 327766, 0, 0, 327767, 0, 0, 327768, 0, 0, 327769, 0, 0, 327770, 0, 0, 327771, 0, 0, 327772, 0, 0, 327773, 0, 0, 327774, 0, 0, 327775, 0, 0, 458729, 0, 0, 458730, 0, 0, 458731, 0, 0, 458732, 0, 0, 458733, 0, 0, 458734, 0, 0, 458735, 0, 0, 458736, 0, 0, 458737, 0, 0, 458738, 0, 0, 458739, 0, 0, 458740, 0, 0, 458741, 0, 0, 458742, 0, 0, 458743, 0, 0, 458744, 0, 0, 458745, 0, 0, 458746, 0, 0, 458747, 0, 0, 458748, 0, 0, 458749, 0, 0, 458750, 0, 0, 458751, 0, 0, 393216, 0, 0, 393217, 0, 0, 393218, 0, 0, 393219, 0, 0, 393220, 0, 0, 393221, 0, 0, 393222, 0, 0, 393223, 0, 0, 393224, 0, 0, 393225, 0, 0, 393226, 0, 0, 393227, 0, 0, 393228, 0, 0, 393229, 0, 0, 393230, 0, 0, 393231, 0, 0, 393232, 0, 0, 393233, 0, 0, 393234, 0, 0, 393235, 0, 0, 393236, 0, 0, 393237, 0, 0, 393238, 0, 0, 393239, 0, 0, 393240, 0, 0, 393241, 0, 0, 393242, 0, 0, 393243, 0, 0, 393244, 0, 0, 393245, 0, 0, 393246, 0, 0, 393247, 0, 0, 393248, 0, 0, 393249, 0, 0, 393250, 0, 0, 393251, 0, 0, 393252, 0, 0, 393253, 0, 0, 393254, 0, 0, 393255, 0, 0, 393256, 0, 0, 393257, 0, 0, 393258, 0, 0, 393259, 0, 0, 393260, 0, 0, 393261, 0, 0, 393262, 0, 0, 393263, 0, 0, 393264, 0, 0, 393265, 0, 0, 393266, 0, 0, 393267, 0, 0, 393268, 0, 0, 393269, 0, 0, 393270, 0, 0, 393271, 0, 0, 393272, 0, 0, 393273, 0, 0, 393274, 0, 0, 393275, 0, 0, 393276, 0, 0, 393277, 0, 0, 393278, 0, 0, 393279, 0, 0, 393280, 0, 0, 393281, 0, 0, 393282, 0, 0, 393283, 0, 0, 393284, 0, 0, 393285, 0, 0, 393286, 0, 0, 393287, 0, 0, 393288, 0, 0, 393289, 0, 0, 393290, 0, 0, 393291, 0, 0, 393292, 0, 0, 393293, 0, 0, 393294, 0, 0, 393295, 0, 0, 393296, 0, 0, 393297, 0, 0, 393298, 0, 0, 393299, 0, 0, 393300, 0, 0, 393301, 0, 0, 393302, 0, 0, 393303, 0, 0, 393304, 0, 0, 393305, 0, 0, 393306, 0, 0, 393307, 0, 0, 393308, 0, 0, 393309, 0, 0, 393310, 0, 0, 393311, 0, 0, 524265, 0, 0, 524266, 0, 0, 524267, 0, 0, 524268, 0, 0, 524269, 0, 0, 524270, 0, 0, 524271, 0, 0, 524272, 0, 0, 524273, 0, 0, 524274, 0, 0, 524275, 0, 0, 524276, 0, 0, 524277, 0, 0, 524278, 0, 0, 524279, 0, 0, 524280, 0, 0, 524281, 0, 0, 524282, 0, 0, 524283, 0, 0, 524284, 0, 0, 524285, 0, 0, 524286, 0, 0, 524287, 0, 0, 458752, 0, 0, 458753, 0, 0, 458754, 0, 0, 458755, 0, 0, 458756, 0, 0, 458757, 0, 0, 458758, 0, 0, 458759, 0, 0, 458760, 0, 0, 458761, 0, 0, 458762, 0, 0, 458763, 0, 0, 458764, 0, 0, 458765, 0, 0, 458766, 0, 0, 458767, 0, 0, 458768, 0, 0, 458769, 0, 0, 458770, 0, 0, 458771, 0, 0, 458772, 0, 0, 458773, 0, 0, 458774, 0, 0, 458775, 0, 0, 458776, 0, 0, 458777, 0, 0, 458778, 0, 0, 458779, 0, 0, 458780, 0, 0, 458781, 0, 0, 458782, 0, 0, 458783, 0, 0, 458784, 0, 0, 458785, 0, 0, 458786, 0, 0, 458787, 0, 0, 458788, 0, 0, 458789, 0, 0, 458790, 0, 0, 458791, 0, 0, 458792, 0, 0, 458793, 0, 0, 458794, 0, 0, 458795, 0, 0, 458796, 0, 0, 458797, 0, 0, 458798, 0, 0, 458799, 0, 0, 458800, 0, 0, 458801, 0, 0, 458802, 0, 0, 458803, 0, 0, 458804, 0, 0, 458805, 0, 0, 458806, 0, 0, 458807, 0, 0, 458808, 0, 0, 458809, 0, 0, 458810, 0, 0, 458811, 0, 0, 458812, 0, 0, 458813, 0, 0, 458814, 0, 0, 458815, 0, 0, 458816, 0, 0, 458817, 0, 0, 458818, 0, 0, 458819, 0, 0, 458820, 0, 0, 458821, 0, 0, 458822, 0, 0, 458823, 0, 0, 458824, 0, 0, 458825, 0, 0, 458826, 0, 0, 458827, 0, 0, 458828, 0, 0, 458829, 0, 0, 458830, 0, 0, 458831, 0, 0, 458832, 0, 0, 458833, 0, 0, 458834, 0, 0, 458835, 0, 0, 458836, 0, 0, 458837, 0, 0, 458838, 0, 0, 458839, 0, 0, 458840, 0, 0, 458841, 0, 0, 458842, 0, 0, 458843, 0, 0, 458844, 0, 0, 458845, 0, 0, 458846, 0, 0, 458847, 0, 0 )

[node name="Sky" parent="." instance=ExtResource( 9 )]

[node name="LearningText" type="RichTextLabel" parent="."]
margin_left = -827.0
margin_top = -530.0
margin_right = -90.0
margin_bottom = -123.0
custom_fonts/normal_font = SubResource( 12 )
custom_styles/normal = SubResource( 13 )
text = "Welcome to Furious Fletchlings!
Let's learn how to play:

Click and hold, then drag back.
A line will appear to help you aim.
Release the mouse button to launch!

(If you want to look cool, you can hold down \"S\" for some sick slow-mo)"

[node name="Line2D" type="Line2D" parent="."]

[node name="Freecam" type="Camera2D" parent="."]
zoom = Vector2( 2, 2 )
script = ExtResource( 16 )
