[gd_scene load_steps=3 format=2]

[ext_resource path="res://Scripts/Debug.gd" type="Script" id=1]

[sub_resource type="StyleBoxFlat" id=2]
content_margin_left = 5.0
content_margin_right = 5.0
content_margin_top = 5.0
content_margin_bottom = 5.0
bg_color = Color( 0, 0, 0, 0.309804 )
corner_radius_top_left = 5
corner_radius_top_right = 5
corner_radius_bottom_right = 5
corner_radius_bottom_left = 5

[node name="Debug" type="RichTextLabel"]
margin_left = 16.0
margin_top = 16.0
margin_right = 340.0
margin_bottom = 41.0
mouse_filter = 1
custom_styles/normal = SubResource( 2 )
text = "FPS"
fit_content_height = true
script = ExtResource( 1 )
